^C:\USERS\USER\SOURCE\REPOS\PROJECT1\PROJECT1\DEBUG\DV.OBJ|C:\USERS\USER\SOURCE\REPOS\PROJECT1\PROJECT1\DEBUG\MAIN.OBJ
C:\USERS\USER\SOURCE\REPOS\PROJECT1\DEBUG\PROJECT1.EXE
C:\USERS\USER\SOURCE\REPOS\PROJECT1\DEBUG\PROJECT1.ILK
C:\USERS\USER\SOURCE\REPOS\PROJECT1\DEBUG\PROJECT1.PDB
